R and Python Integration for Natural Language Processing (NLP)
…
Cleaning the Data:

cleaned_books <- tidy_books %>%
  anti_join(get_stopwords())

Joining with `by = join_by(word)`

This code removes common stop words from the data to focus on more meaningful words.

Word Count:

cleaned_books %>%
  count(word, sort = TRUE)

# A tibble: 14,375 × 2
   word      n
   <chr> <int>
 1 mr     3015
 2 mrs    2446
 3 must   2071
 4 said   2041
 5 much   1935
 6 miss   1855
 7 one    1831
 8 well   1523
 9 every  1456
10 think  1440
# ℹ 14,365 more rows
Counts and sorts the words in the cleaned data. This helps in identifying the most common words in the books.

Sentiment Analysis - Positive Words in ‘Emma’:

positive <- get_sentiments("bing") %>%
  filter(sentiment == "positive")

tidy_books %>%
  filter(book == "Emma") %>%
  semi_join(positive) %>%
  count(word, sort = TRUE)

Joining with `by = join_by(word)`

# A tibble: 668 × 2
   word         n
   <chr>    <int>
 1 well       401
 2 good       359
 3 great      264
 4 like       200
 5 better     173
 6 enough     129
 7 happy      125
 8 love       117
 9 pleasure   115
10 right       92
# ℹ 658 more rows
…
